…
You might expect that there’s an implicit relationship between plane and
airline, because each plane is flown by a single airline. Confirm or
reject this conjecture using data.

``` r
# put your answer here.
flights %>%
  select(carrier, tailnum) %>%
  group_by(tailnum) %>%
  summarize(number= length(carrier)) %>%
  filter(number > 1) 
```

    ## # A tibble: 3,873 x 2
    ##    tailnum number
    ##    <chr>    <int>
    ##  1 D942DN       4
    ##  2 N0EGMQ     371
    ##  3 N10156     153
    ##  4 N102UW      48
    ##  5 N103US      46
    ##  6 N104UW      47
    ##  7 N10575     289
    ##  8 N105UW      45
    ##  9 N107US      41
    ## 10 N108UW      60
    ## # ... with 3,863 more rows
…
Compute average flight speed for each plane. Compare to the value
contained in `planes$speed`.

``` r
# put your answer here. 
#speed= distance over time

flights1 <- flights%>%
  mutate(avg_flight_speed = distance / air_time)%>%
  group_by(tailnum)

flights1
```

    ## # A tibble: 336,776 x 20
    ## # Groups:   tailnum [4,044]
    ##     year month   day dep_time sched_dep_time dep_delay arr_time sched_arr_time
    ##    <int> <int> <int>    <int>          <int>     <dbl>    <int>          <int>
    ##  1  2013     1     1      517            515         2      830            819
    ##  2  2013     1     1      533            529         4      850            830
    ##  3  2013     1     1      542            540         2      923            850
    ##  4  2013     1     1      544            545        -1     1004           1022
    ##  5  2013     1     1      554            600        -6      812            837
    ##  6  2013     1     1      554            558        -4      740            728
    ##  7  2013     1     1      555            600        -5      913            854
    ##  8  2013     1     1      557            600        -3      709            723
    ##  9  2013     1     1      557            600        -3      838            846
    ## 10  2013     1     1      558            600        -2      753            745
    ## # ... with 336,766 more rows, and 12 more variables: arr_delay <dbl>,
    ## #   carrier <chr>, flight <int>, tailnum <chr>, origin <chr>, dest <chr>,
    ## #   air_time <dbl>, distance <dbl>, hour <dbl>, minute <dbl>, time_hour <dttm>,
    ## #   avg_flight_speed <dbl>
…
